%YAML 1.1
%TAG !u! tag:unity3d.com,2011:
--- !u!221 &22100000
AnimatorOverrideController:
  m_ObjectHideFlags: 0
  m_PrefabParentObject: {fileID: 0}
  m_PrefabInternal: {fileID: 0}
  m_Name: Enemy Strong
  m_Controller: {fileID: 9100000, guid: cfaba2d745a6fcc4db1491e1c2bfabe0, type: 2}
  m_Clips:
  - m_OriginalClip: {fileID: 7400000, guid: 601a76be4abb07944930e702fa926849, type: 2}
    m_OverrideClip: {fileID: 7400000, guid: e1f0bc9da1ec0ba4b80ec614390ebc81, type: 2}
  - m_OriginalClip: {fileID: 7400000, guid: f20f9b79cc926db409fc77512bdb5629, type: 2}
    m_OverrideClip: {fileID: 7400000, guid: b195755bf4ecbb543985195b9204db0b, type: 2}
